\relax 
\providecommand\hyper@newdestlabel[2]{}
\providecommand\HyperFirstAtBeginDocument{\AtBeginDocument}
\HyperFirstAtBeginDocument{\ifx\hyper@anchor\@undefined
\global\let\oldcontentsline\contentsline
\gdef\contentsline#1#2#3#4{\oldcontentsline{#1}{#2}{#3}}
\global\let\oldnewlabel\newlabel
\gdef\newlabel#1#2{\newlabelxx{#1}#2}
\gdef\newlabelxx#1#2#3#4#5#6{\oldnewlabel{#1}{{#2}{#3}}}
\AtEndDocument{\ifx\hyper@anchor\@undefined
\let\contentsline\oldcontentsline
\let\newlabel\oldnewlabel
\fi}
\fi}
\global\let\hyper@last\relax 
\gdef\HyperFirstAtBeginDocument#1{#1}
\providecommand\HyField@AuxAddToFields[1]{}
\providecommand\HyField@AuxAddToCoFields[2]{}
\catcode `"\active 
\catcode `<\active 
\catcode `>\active 
\@nameuse{es@quoting}
\select@language{spanish}
\@writefile{toc}{\select@language{spanish}}
\@writefile{lof}{\select@language{spanish}}
\@writefile{lot}{\select@language{spanish}}
\@writefile{toc}{\contentsline {section}{\numberline {1}Introducci\'on}{1}{section.1}}
\@writefile{toc}{\contentsline {subsection}{\numberline {1.1}Objetivo}{1}{subsection.1.1}}
\@writefile{toc}{\contentsline {paragraph}{E}{1}{section*.1}}
\@writefile{toc}{\contentsline {subsection}{\numberline {1.2}Objetivo Adicional}{1}{subsection.1.2}}
\@writefile{toc}{\contentsline {paragraph}{C}{1}{section*.2}}
\@writefile{toc}{\contentsline {section}{\numberline {2}Desarrollo}{1}{section.2}}
\@writefile{toc}{\contentsline {section}{\numberline {3}Conclusiones}{2}{section.3}}
\@writefile{toc}{\contentsline {section}{\numberline {A}C\'odigo}{2}{appendix.Alph1}}
\@writefile{lol}{\contentsline {lstlisting}{proslug01.pl}{2}{lstlisting.-1}}
